\boolfalse {citerequest}\boolfalse {citetracker}\boolfalse {pagetracker}\boolfalse {backtracker}\relax 
\defcounter {refsection}{0}\relax 
\select@language {ngerman}
\defcounter {refsection}{0}\relax 
\addvspace {10\p@ }
\defcounter {refsection}{0}\relax 
\addvspace {10\p@ }
\defcounter {refsection}{0}\relax 
\addvspace {10\p@ }
\defcounter {refsection}{0}\relax 
\addvspace {10\p@ }
\defcounter {refsection}{0}\relax 
\contentsline {table}{\numberline {\relax 3.1}{\ignorespaces Distanzmatrix des numerischen \ac {TSP}-Beispiels\relax }}{13}{table.caption.20}
\defcounter {refsection}{0}\relax 
\contentsline {table}{\numberline {\relax 3.2}{\ignorespaces Initiale Pheromonmatrix des \ac {TSP}-Beispiels\relax }}{13}{table.caption.21}
\defcounter {refsection}{0}\relax 
\contentsline {table}{\numberline {\relax 3.3}{\ignorespaces Ergebnisse der drei Ameisen der ersten Generation\relax }}{16}{table.caption.22}
\defcounter {refsection}{0}\relax 
\contentsline {table}{\numberline {\relax 3.4}{\ignorespaces Pheromonmatrix des TSP-Beispiels nach dem ersten Durchlauf\relax }}{16}{table.caption.23}
\defcounter {refsection}{0}\relax 
\contentsline {table}{\numberline {\relax 3.5}{\ignorespaces Ergebnisse der drei Ameisen der zweiten Generation\relax }}{17}{table.caption.24}
\defcounter {refsection}{0}\relax 
\contentsline {table}{\numberline {\relax 3.6}{\ignorespaces Pheromonmatrix des \ac {TSP}-Beispiels nach dem zweiten Durchlauf\relax }}{17}{table.caption.25}
\defcounter {refsection}{0}\relax 
\contentsline {table}{\numberline {\relax 3.7}{\ignorespaces Pheromonmatrix des \ac {TSP}-Beispiels nach dem finalen dritten Durchlauf\relax }}{17}{table.caption.26}
\defcounter {refsection}{0}\relax 
\contentsline {table}{\numberline {\relax 3.8}{\ignorespaces Ergebnisse der drei Ameisen der dritten Generation\relax }}{18}{table.caption.27}
\defcounter {refsection}{0}\relax 
\addvspace {10\p@ }
\defcounter {refsection}{0}\relax 
\contentsline {table}{\numberline {\relax 4.1}{\ignorespaces Werte der Test-Coverage-Daten\relax }}{36}{table.caption.37}
\defcounter {refsection}{0}\relax 
\contentsline {table}{\numberline {\relax 4.2}{\ignorespaces F\IeC {\"u}r Performance-Benchmarks verwendete relevante Hardware\relax }}{39}{table.caption.40}
\defcounter {refsection}{0}\relax 
\addvspace {10\p@ }
\defcounter {refsection}{0}\relax 
\contentsline {table}{\numberline {\relax 5.1}{\ignorespaces Komplexit\IeC {\"a}tseinsch\IeC {\"a}tzung des Projekts im Rahmen einer Absch\IeC {\"a}tzung der Funktionspunkte\relax }}{45}{table.caption.44}
\defcounter {refsection}{0}\relax 
\addvspace {10\p@ }
\defcounter {refsection}{0}\relax 
\contentsline {table}{\numberline {\relax 6.1}{\ignorespaces Optimale Parametereinstellungen nach Thomas St\IeC {\"u}tzle, s. \cite {stuetzle_parameter}, Table 2\relax }}{47}{table.caption.45}
\defcounter {refsection}{0}\relax 
\contentsline {table}{\numberline {\relax 6.2}{\ignorespaces In Phase 1 der Sensitivt\IeC {\"a}tsanalyse erreichte Distanzwerte\relax }}{48}{table.caption.47}
\defcounter {refsection}{0}\relax 
\contentsline {table}{\numberline {\relax 6.3}{\ignorespaces In Phase 2 der Sensitivt\IeC {\"a}tsanalyse erreichte Distanzwerte\relax }}{49}{table.caption.49}
\defcounter {refsection}{0}\relax 
\contentsline {table}{\numberline {\relax 6.4}{\ignorespaces In Phase 3 der Sensitivt\IeC {\"a}tsanalyse erreichte Distanzwerte\relax }}{51}{table.caption.51}
\defcounter {refsection}{0}\relax 
\contentsline {table}{\numberline {\relax 6.5}{\ignorespaces In Phase 4 der Sensitivt\IeC {\"a}tsanalyse erreichte Distanzwerte\relax }}{52}{table.caption.53}
\defcounter {refsection}{0}\relax 
\contentsline {table}{\numberline {\relax 6.6}{\ignorespaces Optimale Parametereinstellungen nach Thomas St\IeC {\"u}tzle, s. \cite {stuetzle_parameter}, Table 2\relax }}{52}{table.caption.54}
\defcounter {refsection}{0}\relax 
\addvspace {10\p@ }
\defcounter {refsection}{0}\relax 
\contentsline {table}{\numberline {\relax 7.1}{\ignorespaces F\IeC {\"u}r den Proof of Concept gew\IeC {\"a}hlte Parameter\relax }}{55}{table.caption.55}
\defcounter {refsection}{0}\relax 
\addvspace {10\p@ }
\defcounter {refsection}{0}\relax 
\addvspace {10\p@ }
