\relax 
\providecommand\hyper@newdestlabel[2]{}
\providecommand{\transparent@use}[1]{}
\providecommand*\new@tpo@label[2]{}
\bibstyle{biblatex}
\bibdata{main-blx,bibliography}
\citation{biblatex-control}
\abx@aux@sortscheme{nty}
\abx@aux@refcontext{nty/global/}
\catcode `"\active 
\providecommand\HyperFirstAtBeginDocument{\AtBeginDocument}
\HyperFirstAtBeginDocument{\ifx\hyper@anchor\@undefined
\global\let\oldcontentsline\contentsline
\gdef\contentsline#1#2#3#4{\oldcontentsline{#1}{#2}{#3}}
\global\let\oldnewlabel\newlabel
\gdef\newlabel#1#2{\newlabelxx{#1}#2}
\gdef\newlabelxx#1#2#3#4#5#6{\oldnewlabel{#1}{{#2}{#3}}}
\AtEndDocument{\ifx\hyper@anchor\@undefined
\let\contentsline\oldcontentsline
\let\newlabel\oldnewlabel
\fi}
\fi}
\global\let\hyper@last\relax 
\gdef\HyperFirstAtBeginDocument#1{#1}
\providecommand\HyField@AuxAddToFields[1]{}
\providecommand\HyField@AuxAddToCoFields[2]{}
\AC@reset@newl@bel
\@writefile{toc}{\boolfalse {citerequest}\boolfalse {citetracker}\boolfalse {pagetracker}\boolfalse {backtracker}\relax }
\@writefile{lof}{\boolfalse {citerequest}\boolfalse {citetracker}\boolfalse {pagetracker}\boolfalse {backtracker}\relax }
\@writefile{lot}{\boolfalse {citerequest}\boolfalse {citetracker}\boolfalse {pagetracker}\boolfalse {backtracker}\relax }
\select@language{ngerman}
\@writefile{toc}{\defcounter {refsection}{0}\relax }\@writefile{toc}{\select@language{ngerman}}
\@writefile{lof}{\defcounter {refsection}{0}\relax }\@writefile{lof}{\select@language{ngerman}}
\@writefile{lot}{\defcounter {refsection}{0}\relax }\@writefile{lot}{\select@language{ngerman}}
\AC@undonewlabel{acro:TSP}
\newlabel{acro:TSP}{{}{v}{Zusammenfassung}{section*.7}{}}
\acronymused{TSP}
\@writefile{toc}{\defcounter {refsection}{0}\relax }\@writefile{toc}{\contentsline {chapter}{\nonumberline Abk\IeC {\"u}rzungsverzeichnis}{ix}{chapter*.8}}
\@writefile{lof}{\defcounter {refsection}{0}\relax }\@writefile{lof}{\addvspace {10\p@ }}
\@writefile{lot}{\defcounter {refsection}{0}\relax }\@writefile{lot}{\addvspace {10\p@ }}
\@writefile{lol}{\defcounter {refsection}{0}\relax }\@writefile{lol}{\addvspace {10\p@ }}
\newacro{ACO}[\AC@hyperlink{ACO}{ACO}]{Ant Colony Optimization oder Ameisenalgorithmus}
\newacro{COCOMO}[\AC@hyperlink{COCOMO}{COCOMO}]{Constructive Cost Model}
\newacro{DB}[\AC@hyperlink{DB}{DB}]{Datenbank}
\newacro{ER}[\AC@hyperlink{ER}{ER}]{Entity Relationship}
\newacro{HSQLDB}[\AC@hyperlink{HSQLDB}{HSQLDB}]{HyperSQL-Datenbank}
\newacro{SQL}[\AC@hyperlink{SQL}{SQL}]{Structured Query Language}
\newacro{TSP}[\AC@hyperlink{TSP}{TSP}]{Traveling Salesman Problem oder Problem des Handlungsreisenden}
\newacro{UML}[\AC@hyperlink{UML}{UML}]{Unified Modeling Language}
\@writefile{toc}{\defcounter {refsection}{0}\relax }\@writefile{toc}{\contentsline {chapter}{Abbildungsverzeichnis}{x}{section*.9}}
\acronymused{TSP}
\acronymused{TSP}
\acronymused{TSP}
\acronymused{ACO}
\@writefile{toc}{\defcounter {refsection}{0}\relax }\@writefile{toc}{\contentsline {chapter}{Tabellenverzeichnis}{xii}{section*.10}}
\acronymused{TSP}
\acronymused{TSP}
\acronymused{TSP}
\acronymused{TSP}
\@writefile{toc}{\defcounter {refsection}{0}\relax }\@writefile{toc}{\contentsline {chapter}{Formelverzeichnis}{xiii}{section*.11}}
\AC@undonewlabel{acro:COCOMO}
\newlabel{acro:COCOMO}{{}{xiii}{Abkürzungsverzeichnis}{section*.12}{}}
\acronymused{COCOMO}
\@writefile{toc}{\defcounter {refsection}{0}\relax }\@writefile{toc}{\contentsline {chapter}{\numberline {1}Einleitung}{1}{chapter.1}}
\@writefile{lof}{\defcounter {refsection}{0}\relax }\@writefile{lof}{\addvspace {10\p@ }}
\@writefile{lot}{\defcounter {refsection}{0}\relax }\@writefile{lot}{\addvspace {10\p@ }}
\@writefile{lol}{\defcounter {refsection}{0}\relax }\@writefile{lol}{\addvspace {10\p@ }}
\acronymused{TSP}
\acronymused{TSP}
\@writefile{toc}{\defcounter {refsection}{0}\relax }\@writefile{toc}{\contentsline {section}{\numberline {1.1}Problemstellung}{1}{section.1.1}}
\acronymused{TSP}
\AC@undonewlabel{acro:ACO}
\newlabel{acro:ACO}{{1.1}{1}{Problemstellung}{section*.13}{}}
\acronymused{ACO}
\@writefile{toc}{\defcounter {refsection}{0}\relax }\@writefile{toc}{\contentsline {section}{\numberline {1.2}Motivation}{1}{section.1.2}}
\@writefile{toc}{\defcounter {refsection}{0}\relax }\@writefile{toc}{\contentsline {section}{\numberline {1.3}Ziel dieser Arbeit}{1}{section.1.3}}
\@writefile{toc}{\defcounter {refsection}{0}\relax }\@writefile{toc}{\contentsline {chapter}{\numberline {2}Stand der Technik \& Forschung}{2}{chapter.2}}
\@writefile{lof}{\defcounter {refsection}{0}\relax }\@writefile{lof}{\addvspace {10\p@ }}
\@writefile{lot}{\defcounter {refsection}{0}\relax }\@writefile{lot}{\addvspace {10\p@ }}
\@writefile{lol}{\defcounter {refsection}{0}\relax }\@writefile{lol}{\addvspace {10\p@ }}
\newlabel{allgemeines}{{2}{2}{Stand der Technik \& Forschung}{chapter.2}{}}
\acronymused{TSP}
\@writefile{toc}{\defcounter {refsection}{0}\relax }\@writefile{toc}{\contentsline {section}{\numberline {2.1}Traveling Salesman Problem}{2}{section.2.1}}
\acronymused{TSP}
\@writefile{lof}{\defcounter {refsection}{0}\relax }\@writefile{lof}{\contentsline {figure}{\numberline {\relax 2.1}{\ignorespaces Beispielhafte Darstellung einer m\IeC {\"o}glichen \acs {TSP}-Problemstellung\relax }}{2}{figure.caption.14}}
\acronymused{TSP}
\providecommand*\caption@xref[2]{\@setref\relax\@undefined{#1}}
\newlabel{tspBeispiel}{{\relax 2.1}{2}{Beispielhafte Darstellung einer möglichen \acs {TSP}-Problemstellung\relax }{figure.caption.14}{}}
\acronymused{TSP}
\acronymused{TSP}
\acronymused{TSP}
\@writefile{toc}{\defcounter {refsection}{0}\relax }\@writefile{toc}{\contentsline {subsection}{\numberline {2.1.1}Varianten des \ac {TSP}}{3}{subsection.2.1.1}}
\acronymused{TSP}
\acronymused{TSP}
\@writefile{toc}{\defcounter {refsection}{0}\relax }\@writefile{toc}{\contentsline {subsection}{\numberline {2.1.2}Reale Adaptionen}{3}{subsection.2.1.2}}
\acronymused{TSP}
\@writefile{toc}{\defcounter {refsection}{0}\relax }\@writefile{toc}{\contentsline {section}{\numberline {2.2}Ant Colony Optimization}{3}{section.2.2}}
\acronymused{ACO}
\citation{Valencak2015}
\abx@aux@cite{Valencak2015}
\abx@aux@segm{0}{0}{Valencak2015}
\@writefile{lof}{\defcounter {refsection}{0}\relax }\@writefile{lof}{\contentsline {figure}{\numberline {\relax 2.2}{\ignorespaces Beispielhafte Darstellung einer Ameisenkolonie mit verschiedenen Nahrungsquellen\relax }}{4}{figure.caption.15}}
\newlabel{acoBeispiel}{{\relax 2.2}{4}{Beispielhafte Darstellung einer Ameisenkolonie mit verschiedenen Nahrungsquellen\relax }{figure.caption.15}{}}
\@writefile{toc}{\defcounter {refsection}{0}\relax }\@writefile{toc}{\contentsline {subsection}{\numberline {2.2.1}Arbeitsweise einer Ameisenkolonie}{4}{subsection.2.2.1}}
\citation{Whitehead2011}
\abx@aux@cite{Whitehead2011}
\abx@aux@segm{0}{0}{Whitehead2011}
\citation{Shewchuk1997}
\abx@aux@cite{Shewchuk1997}
\abx@aux@segm{0}{0}{Shewchuk1997}
\@writefile{toc}{\defcounter {refsection}{0}\relax }\@writefile{toc}{\contentsline {subsection}{\numberline {2.2.2}Addaption einer Ameisenkolonie in der Informatik}{5}{subsection.2.2.2}}
\acronymused{ACO}
\@writefile{toc}{\defcounter {refsection}{0}\relax }\@writefile{toc}{\contentsline {section}{\numberline {2.3}Numerische Datentypen}{5}{section.2.3}}
\@writefile{toc}{\defcounter {refsection}{0}\relax }\@writefile{toc}{\contentsline {subsection}{\numberline {2.3.1}Begrenzungen von double}{6}{subsection.2.3.1}}
\@writefile{toc}{\defcounter {refsection}{0}\relax }\@writefile{toc}{\contentsline {subsection}{\numberline {2.3.2}M\IeC {\"o}glichkeiten durch BigDecimal}{6}{subsection.2.3.2}}
\@writefile{toc}{\defcounter {refsection}{0}\relax }\@writefile{toc}{\contentsline {subsection}{\numberline {2.3.3}Probleme von BigDecimal}{6}{subsection.2.3.3}}
\@writefile{toc}{\defcounter {refsection}{0}\relax }\@writefile{toc}{\contentsline {chapter}{\numberline {3}Konzeptionierung}{8}{chapter.3}}
\@writefile{lof}{\defcounter {refsection}{0}\relax }\@writefile{lof}{\addvspace {10\p@ }}
\@writefile{lot}{\defcounter {refsection}{0}\relax }\@writefile{lot}{\addvspace {10\p@ }}
\@writefile{lol}{\defcounter {refsection}{0}\relax }\@writefile{lol}{\addvspace {10\p@ }}
\newlabel{konzept}{{3}{8}{Konzeptionierung}{chapter.3}{}}
\acronymused{COCOMO}
\AC@undonewlabel{acro:UML}
\newlabel{acro:UML}{{3}{8}{Konzeptionierung}{section*.16}{}}
\acronymused{UML}
\@writefile{toc}{\defcounter {refsection}{0}\relax }\@writefile{toc}{\contentsline {section}{\numberline {3.1}Software Engineering}{8}{section.3.1}}
\acronymused{TSP}
\acronymused{ACO}
\acronymused{TSP}
\acronymused{ACO}
\@writefile{toc}{\defcounter {refsection}{0}\relax }\@writefile{toc}{\contentsline {section}{\numberline {3.2}Architektur}{9}{section.3.2}}
\newlabel{architektur}{{3.2}{9}{Architektur}{section.3.2}{}}
\acronymused{TSP}
\acronymused{TSP}
\acronymused{TSP}
\@writefile{toc}{\defcounter {refsection}{0}\relax }\@writefile{toc}{\contentsline {subsection}{\numberline {3.2.1}Persistenz}{10}{subsection.3.2.1}}
\AC@undonewlabel{acro:DB}
\newlabel{acro:DB}{{3.2.1}{10}{Persistenz}{section*.17}{}}
\acronymused{DB}
\AC@undonewlabel{acro:HSQLDB}
\newlabel{acro:HSQLDB}{{3.2.1}{10}{Persistenz}{section*.18}{}}
\acronymused{HSQLDB}
\@writefile{toc}{\defcounter {refsection}{0}\relax }\@writefile{toc}{\contentsline {subsection}{\numberline {3.2.2}Applikation}{10}{subsection.3.2.2}}
\@writefile{toc}{\defcounter {refsection}{0}\relax }\@writefile{toc}{\contentsline {subsection}{\numberline {3.2.3}TSP}{11}{subsection.3.2.3}}
\@writefile{toc}{\defcounter {refsection}{0}\relax }\@writefile{toc}{\contentsline {subsection}{\numberline {3.2.4}ACO}{11}{subsection.3.2.4}}
\acronymused{ACO}
\@writefile{toc}{\defcounter {refsection}{0}\relax }\@writefile{toc}{\contentsline {subsection}{\numberline {3.2.5}Arbeitsweise der Architektur}{12}{subsection.3.2.5}}
\newlabel{numerschiesBeispiel}{{3.2.5}{12}{Arbeitsweise der Architektur}{subsection.3.2.5}{}}
\@writefile{lof}{\defcounter {refsection}{0}\relax }\@writefile{lof}{\contentsline {figure}{\numberline {\relax 3.1}{\ignorespaces Darstellung des \ac {TSP}-Beispiels zur Darlegung der Arbeitsweise der Architektur\relax }}{12}{figure.caption.19}}
\acronymused{TSP}
\newlabel{tspAcoNumerisch}{{\relax 3.1}{12}{Darstellung des \ac {TSP}-Beispiels zur Darlegung der Arbeitsweise der Architektur\relax }{figure.caption.19}{}}
\acronymused{TSP}
\acronymused{ACO}
\@writefile{lot}{\defcounter {refsection}{0}\relax }\@writefile{lot}{\contentsline {table}{\numberline {\relax 3.1}{\ignorespaces Distanzmatrix des numerischen \ac {TSP}-Beispiels\relax }}{13}{table.caption.20}}
\acronymused{TSP}
\newlabel{tspAcoNumerisch_matrix}{{\relax 3.1}{13}{Distanzmatrix des numerischen \ac {TSP}-Beispiels\relax }{table.caption.20}{}}
\@writefile{lot}{\defcounter {refsection}{0}\relax }\@writefile{lot}{\contentsline {table}{\numberline {\relax 3.2}{\ignorespaces Initiale Pheromonmatrix des \ac {TSP}-Beispiels\relax }}{13}{table.caption.21}}
\acronymused{TSP}
\newlabel{tspAcoNumerisch_pheromon_initial}{{\relax 3.2}{13}{Initiale Pheromonmatrix des \ac {TSP}-Beispiels\relax }{table.caption.21}{}}
\acronymused{TSP}
\acronymused{ACO}
\@writefile{equ}{\defcounter {refsection}{0}\relax }\@writefile{equ}{\contentsline {myequations}{\numberline {\relax 3.1f}Formeln zum Berechnen des Verh\IeC {\"a}ltnisses $\lambda $ von Pheromonwert und Streckenl\IeC {\"a}nge}{14}{equation.3.2.6}}
\newlabel{eq:P}{{\relax 3.2a}{14}{Arbeitsweise der Architektur}{equation.3.2.1}{}}
\@writefile{equ}{\defcounter {refsection}{0}\relax }\@writefile{equ}{\contentsline {myequations}{\numberline {\relax 3.2f}Formeln zum Berechnen der Wahrscheinlichkeiten $\rho $ aus dem Verh\IeC {\"a}ltnis $\lambda $ und der Summe aller $\lambda $}{15}{equation.3.2.6}}
\@writefile{lot}{\defcounter {refsection}{0}\relax }\@writefile{lot}{\contentsline {table}{\numberline {\relax 3.3}{\ignorespaces Ergebnisse der drei Ameisen der ersten Generation\relax }}{16}{table.caption.22}}
\newlabel{tspAcoNumerisch_ergebnis_1}{{\relax 3.3}{16}{Ergebnisse der drei Ameisen der ersten Generation\relax }{table.caption.22}{}}
\@writefile{lot}{\defcounter {refsection}{0}\relax }\@writefile{lot}{\contentsline {table}{\numberline {\relax 3.4}{\ignorespaces Pheromonmatrix des TSP-Beispiels nach dem ersten Durchlauf\relax }}{16}{table.caption.23}}
\newlabel{tspAcoNumerisch_pheromon_1}{{\relax 3.4}{16}{Pheromonmatrix des TSP-Beispiels nach dem ersten Durchlauf\relax }{table.caption.23}{}}
\@writefile{lot}{\defcounter {refsection}{0}\relax }\@writefile{lot}{\contentsline {table}{\numberline {\relax 3.5}{\ignorespaces Ergebnisse der drei Ameisen der zweiten Generation\relax }}{17}{table.caption.24}}
\newlabel{tspAcoNumerisch_ergebnis_2}{{\relax 3.5}{17}{Ergebnisse der drei Ameisen der zweiten Generation\relax }{table.caption.24}{}}
\@writefile{lot}{\defcounter {refsection}{0}\relax }\@writefile{lot}{\contentsline {table}{\numberline {\relax 3.6}{\ignorespaces Pheromonmatrix des \ac {TSP}-Beispiels nach dem zweiten Durchlauf\relax }}{17}{table.caption.25}}
\acronymused{TSP}
\newlabel{tspAcoNumerisch_pheromon_2}{{\relax 3.6}{17}{Pheromonmatrix des \ac {TSP}-Beispiels nach dem zweiten Durchlauf\relax }{table.caption.25}{}}
\@writefile{lot}{\defcounter {refsection}{0}\relax }\@writefile{lot}{\contentsline {table}{\numberline {\relax 3.7}{\ignorespaces Pheromonmatrix des \ac {TSP}-Beispiels nach dem finalen dritten Durchlauf\relax }}{17}{table.caption.26}}
\acronymused{TSP}
\newlabel{tspAcoNumerisch_pheromon_3}{{\relax 3.7}{17}{Pheromonmatrix des \ac {TSP}-Beispiels nach dem finalen dritten Durchlauf\relax }{table.caption.26}{}}
\@writefile{lot}{\defcounter {refsection}{0}\relax }\@writefile{lot}{\contentsline {table}{\numberline {\relax 3.8}{\ignorespaces Ergebnisse der drei Ameisen der dritten Generation\relax }}{18}{table.caption.27}}
\newlabel{tspAcoNumerisch_ergebnis_3}{{\relax 3.8}{18}{Ergebnisse der drei Ameisen der dritten Generation\relax }{table.caption.27}{}}
\@writefile{toc}{\defcounter {refsection}{0}\relax }\@writefile{toc}{\contentsline {section}{\numberline {3.3}Umsetzung der SOLID-Prinzipien}{18}{section.3.3}}
\@writefile{toc}{\defcounter {refsection}{0}\relax }\@writefile{toc}{\contentsline {subsection}{\numberline {3.3.1}Single Responsibility}{18}{subsection.3.3.1}}
\@writefile{toc}{\defcounter {refsection}{0}\relax }\@writefile{toc}{\contentsline {subsection}{\numberline {3.3.2}Open / Closed}{19}{subsection.3.3.2}}
\@writefile{toc}{\defcounter {refsection}{0}\relax }\@writefile{toc}{\contentsline {subsection}{\numberline {3.3.3}Liskov Substitution}{19}{subsection.3.3.3}}
\@writefile{toc}{\defcounter {refsection}{0}\relax }\@writefile{toc}{\contentsline {subsection}{\numberline {3.3.4}Interface Segregation}{20}{subsection.3.3.4}}
\@writefile{toc}{\defcounter {refsection}{0}\relax }\@writefile{toc}{\contentsline {subsection}{\numberline {3.3.5}Dependency Inversion}{20}{subsection.3.3.5}}
\@writefile{toc}{\defcounter {refsection}{0}\relax }\@writefile{toc}{\contentsline {section}{\numberline {3.4}Parameterbeschreibung}{21}{section.3.4}}
\newlabel{parameter}{{3.4}{21}{Parameterbeschreibung}{section.3.4}{}}
\newlabel{eq:P}{{\relax 3.4}{21}{Parameterbeschreibung}{equation.3.4.4}{}}
\@writefile{equ}{\defcounter {refsection}{0}\relax }\@writefile{equ}{\contentsline {myequations}{\numberline {\relax 3.4}Formel zum Berechnen der Gewichtungen bei der Wegwahl}{21}{equation.3.4.4}}
\@writefile{toc}{\defcounter {refsection}{0}\relax }\@writefile{toc}{\contentsline {subsection}{\numberline {3.4.1}Tau - $\tau $}{22}{subsection.3.4.1}}
\@writefile{toc}{\defcounter {refsection}{0}\relax }\@writefile{toc}{\contentsline {subsection}{\numberline {3.4.2}Eta - $\eta $}{22}{subsection.3.4.2}}
\@writefile{toc}{\defcounter {refsection}{0}\relax }\@writefile{toc}{\contentsline {subsection}{\numberline {3.4.3}Alpha - $\alpha $ und Beta - $\beta $}{22}{subsection.3.4.3}}
\@writefile{toc}{\defcounter {refsection}{0}\relax }\@writefile{toc}{\contentsline {section}{\numberline {3.5}Theoretische Auswirkungen verschiedener Parameterverh\IeC {\"a}ltnisse}{22}{section.3.5}}
\newlabel{analyse}{{3.5}{22}{Theoretische Auswirkungen verschiedener Parameterverhältnisse}{section.3.5}{}}
\@writefile{lof}{\defcounter {refsection}{0}\relax }\@writefile{lof}{\contentsline {figure}{\numberline {\relax 3.2}{\ignorespaces Modellierung einer Ameisenkolonie mit zwei unterschiedlichen Nahrungsquellen.\relax }}{23}{figure.caption.28}}
\newlabel{parameter_start}{{\relax 3.2}{23}{Modellierung einer Ameisenkolonie mit zwei unterschiedlichen Nahrungsquellen.\relax }{figure.caption.28}{}}
\@writefile{toc}{\defcounter {refsection}{0}\relax }\@writefile{toc}{\contentsline {subsection}{\numberline {3.5.1}$\alpha $ hoch - $\beta $ niedrig}{23}{subsection.3.5.1}}
\@writefile{lof}{\defcounter {refsection}{0}\relax }\@writefile{lof}{\contentsline {figure}{\numberline {\relax 3.3}{\ignorespaces Modellierung der Parametereinstellung, sodass der Wert Alpha merklich gr\IeC {\"o}\IeC {\ss }er als der von Beta ist.\relax }}{24}{figure.caption.29}}
\newlabel{parameter_a>b}{{\relax 3.3}{24}{Modellierung der Parametereinstellung, sodass der Wert Alpha merklich größer als der von Beta ist.\relax }{figure.caption.29}{}}
\@writefile{toc}{\defcounter {refsection}{0}\relax }\@writefile{toc}{\contentsline {subsection}{\numberline {3.5.2}$\alpha $ mittel - $\beta $ mittel}{24}{subsection.3.5.2}}
\@writefile{lof}{\defcounter {refsection}{0}\relax }\@writefile{lof}{\contentsline {figure}{\numberline {\relax 3.4}{\ignorespaces Modellierung der Parametereinstellung, sodass der Wert Alpha genauso gro\IeC {\ss } ist wie der von Beta.\relax }}{24}{figure.caption.30}}
\newlabel{parameter_a=b}{{\relax 3.4}{24}{Modellierung der Parametereinstellung, sodass der Wert Alpha genauso groß ist wie der von Beta.\relax }{figure.caption.30}{}}
\@writefile{toc}{\defcounter {refsection}{0}\relax }\@writefile{toc}{\contentsline {subsection}{\numberline {3.5.3}$\alpha $ niedrig - $\beta $ hoch}{25}{subsection.3.5.3}}
\@writefile{lof}{\defcounter {refsection}{0}\relax }\@writefile{lof}{\contentsline {figure}{\numberline {\relax 3.5}{\ignorespaces Modellierung der Parametereinstellung, sodass der Wert Alpha merklich kleiner als der von Beta ist.\relax }}{25}{figure.caption.31}}
\newlabel{parameter_a<b}{{\relax 3.5}{25}{Modellierung der Parametereinstellung, sodass der Wert Alpha merklich kleiner als der von Beta ist.\relax }{figure.caption.31}{}}
\@writefile{toc}{\defcounter {refsection}{0}\relax }\@writefile{toc}{\contentsline {section}{\numberline {3.6}Ausgew\IeC {\"a}hlte Algorithmen}{25}{section.3.6}}
\newlabel{algorithms}{{3.6}{25}{Ausgewählte Algorithmen}{section.3.6}{}}
\@writefile{toc}{\defcounter {refsection}{0}\relax }\@writefile{toc}{\contentsline {subsection}{\numberline {3.6.1}Ant - iteration()}{26}{subsection.3.6.1}}
\@writefile{toc}{\defcounter {refsection}{0}\relax }\@writefile{toc}{\contentsline {subsection}{\numberline {3.6.2}Colony - killAnt()}{26}{subsection.3.6.2}}
\@writefile{toc}{\defcounter {refsection}{0}\relax }\@writefile{toc}{\contentsline {subsection}{\numberline {3.6.3}Colony - updatePheromone()}{26}{subsection.3.6.3}}
\@writefile{toc}{\defcounter {refsection}{0}\relax }\@writefile{toc}{\contentsline {chapter}{\numberline {4}Implementierung}{28}{chapter.4}}
\@writefile{lof}{\defcounter {refsection}{0}\relax }\@writefile{lof}{\addvspace {10\p@ }}
\@writefile{lot}{\defcounter {refsection}{0}\relax }\@writefile{lot}{\addvspace {10\p@ }}
\@writefile{lol}{\defcounter {refsection}{0}\relax }\@writefile{lol}{\addvspace {10\p@ }}
\newlabel{implementierung}{{4}{28}{Implementierung}{chapter.4}{}}
\@writefile{toc}{\defcounter {refsection}{0}\relax }\@writefile{toc}{\contentsline {section}{\numberline {4.1}Beschreibung der Implementierung}{28}{section.4.1}}
\@writefile{toc}{\defcounter {refsection}{0}\relax }\@writefile{toc}{\contentsline {subsection}{\numberline {4.1.1}Klassendiagramm}{28}{subsection.4.1.1}}
\acronymused{TSP}
\@writefile{lof}{\defcounter {refsection}{0}\relax }\@writefile{lof}{\contentsline {figure}{\numberline {\relax 4.1}{\ignorespaces Klassendiagramm der vorliegenden Softwarel\IeC {\"o}sung\relax }}{29}{figure.caption.32}}
\newlabel{classDiagram}{{\relax 4.1}{29}{Klassendiagramm der vorliegenden Softwarelösung\relax }{figure.caption.32}{}}
\@writefile{toc}{\defcounter {refsection}{0}\relax }\@writefile{toc}{\contentsline {subsection}{\numberline {4.1.2}Persistenz}{29}{subsection.4.1.2}}
\acronymused{HSQLDB}
\@writefile{lof}{\defcounter {refsection}{0}\relax }\@writefile{lof}{\contentsline {figure}{\numberline {\relax 4.2}{\ignorespaces Modellierung der Klassen des Persistenz-Bereichs \IeC {\"u}ber CRC-Karten\relax }}{29}{figure.caption.33}}
\newlabel{crcPersistenz}{{\relax 4.2}{29}{Modellierung der Klassen des Persistenz-Bereichs über CRC-Karten\relax }{figure.caption.33}{}}
\@writefile{toc}{\defcounter {refsection}{0}\relax }\@writefile{toc}{\contentsline {subsection}{\numberline {4.1.3}Applikation}{30}{subsection.4.1.3}}
\acronymused{HSQLDB}
\@writefile{lof}{\defcounter {refsection}{0}\relax }\@writefile{lof}{\contentsline {figure}{\numberline {\relax 4.3}{\ignorespaces Modellierung der Klassen des Applikation-Bereichs \IeC {\"u}ber CRC-Karten\relax }}{30}{figure.caption.34}}
\newlabel{crcApplikation}{{\relax 4.3}{30}{Modellierung der Klassen des Applikation-Bereichs über CRC-Karten\relax }{figure.caption.34}{}}
\acronymused{TSP}
\acronymused{TSP}
\@writefile{toc}{\defcounter {refsection}{0}\relax }\@writefile{toc}{\contentsline {subsection}{\numberline {4.1.4}TSP}{31}{subsection.4.1.4}}
\acronymused{TSP}
\@writefile{lof}{\defcounter {refsection}{0}\relax }\@writefile{lof}{\contentsline {figure}{\numberline {\relax 4.4}{\ignorespaces Modellierung der Klassen des \acs {TSP}-Bereichs \IeC {\"u}ber CRC-Karten\relax }}{31}{figure.caption.35}}
\acronymused{TSP}
\newlabel{crcTsp}{{\relax 4.4}{31}{Modellierung der Klassen des \acs {TSP}-Bereichs über CRC-Karten\relax }{figure.caption.35}{}}
\@writefile{toc}{\defcounter {refsection}{0}\relax }\@writefile{toc}{\contentsline {subsection}{\numberline {4.1.5}ACO}{32}{subsection.4.1.5}}
\acronymused{ACO}
\@writefile{lof}{\defcounter {refsection}{0}\relax }\@writefile{lof}{\contentsline {figure}{\numberline {\relax 4.5}{\ignorespaces Modellierung der Klassen des \acs {ACO}-Bereichs \IeC {\"u}ber CRC-Karten\relax }}{32}{figure.caption.36}}
\acronymused{ACO}
\newlabel{crcAco}{{\relax 4.5}{32}{Modellierung der Klassen des \acs {ACO}-Bereichs über CRC-Karten\relax }{figure.caption.36}{}}
\citation{Ullenboom2011}
\abx@aux@cite{Ullenboom2011}
\abx@aux@segm{0}{0}{Ullenboom2011}
\@writefile{toc}{\defcounter {refsection}{0}\relax }\@writefile{toc}{\contentsline {section}{\numberline {4.2}Beschreibung der verwendeten Datenstrukturen}{33}{section.4.2}}
\@writefile{toc}{\defcounter {refsection}{0}\relax }\@writefile{toc}{\contentsline {subsection}{\numberline {4.2.1}BigDecimal}{33}{subsection.4.2.1}}
\citation{Smyth2007}
\abx@aux@cite{Smyth2007}
\abx@aux@segm{0}{0}{Smyth2007}
\@writefile{toc}{\defcounter {refsection}{0}\relax }\@writefile{toc}{\contentsline {subsection}{\numberline {4.2.2}ArrayList}{34}{subsection.4.2.2}}
\@writefile{toc}{\defcounter {refsection}{0}\relax }\@writefile{toc}{\contentsline {subsection}{\numberline {4.2.3}HashMap vs zweidimensionales Array}{35}{subsection.4.2.3}}
\@writefile{toc}{\defcounter {refsection}{0}\relax }\@writefile{toc}{\contentsline {section}{\numberline {4.3}Beschreibung der Testabdeckung}{36}{section.4.3}}
\@writefile{lot}{\defcounter {refsection}{0}\relax }\@writefile{lot}{\contentsline {table}{\numberline {\relax 4.1}{\ignorespaces Werte der Test-Coverage-Daten\relax }}{36}{table.caption.37}}
\newlabel{coverage}{{\relax 4.1}{36}{Werte der Test-Coverage-Daten\relax }{table.caption.37}{}}
\@writefile{toc}{\defcounter {refsection}{0}\relax }\@writefile{toc}{\contentsline {section}{\numberline {4.4}Beweis der Funktionsf\IeC {\"a}higkeit}{37}{section.4.4}}
\acronymused{TSP}
\@writefile{toc}{\defcounter {refsection}{0}\relax }\@writefile{toc}{\contentsline {subsection}{\numberline {4.4.1}numerisches Beispiel}{37}{subsection.4.4.1}}
\@writefile{lof}{\defcounter {refsection}{0}\relax }\@writefile{lof}{\contentsline {figure}{\numberline {\relax 4.6}{\ignorespaces Ausschnitt der Log-Datei bei der Berechnung des numerischen Beispiels aus \ref  {numerschiesBeispiel}. Jede Log-Zeile steht hier f\IeC {\"u}r eine Generation an Ameisen.\relax }}{37}{figure.caption.38}}
\newlabel{numerischBeweis}{{\relax 4.6}{37}{Ausschnitt der Log-Datei bei der Berechnung des numerischen Beispiels aus \ref {numerschiesBeispiel}. Jede Log-Zeile steht hier für eine Generation an Ameisen.\relax }{figure.caption.38}{}}
\@writefile{toc}{\defcounter {refsection}{0}\relax }\@writefile{toc}{\contentsline {subsection}{\numberline {4.4.2}a280 drilling problem}{38}{subsection.4.4.2}}
\@writefile{lof}{\defcounter {refsection}{0}\relax }\@writefile{lof}{\contentsline {figure}{\numberline {\relax 4.7}{\ignorespaces Ausschnitt der Log-Datei bei der Berechnung des ``a280 drilling problem''. Auch hier steht jede Log-Zeile f\IeC {\"u}r eine Generation an Ameisen.\relax }}{38}{figure.caption.39}}
\newlabel{drillingBeweis}{{\relax 4.7}{38}{Ausschnitt der Log-Datei bei der Berechnung des ``a280 drilling problem''. Auch hier steht jede Log-Zeile für eine Generation an Ameisen.\relax }{figure.caption.39}{}}
\@writefile{toc}{\defcounter {refsection}{0}\relax }\@writefile{toc}{\contentsline {section}{\numberline {4.5}Performance-Analyse}{39}{section.4.5}}
\newlabel{performance}{{4.5}{39}{Performance-Analyse}{section.4.5}{}}
\@writefile{lot}{\defcounter {refsection}{0}\relax }\@writefile{lot}{\contentsline {table}{\numberline {\relax 4.2}{\ignorespaces F\IeC {\"u}r Performance-Benchmarks verwendete relevante Hardware\relax }}{39}{table.caption.40}}
\newlabel{hardware}{{\relax 4.2}{39}{Für Performance-Benchmarks verwendete relevante Hardware\relax }{table.caption.40}{}}
\acronymused{TSP}
\@writefile{toc}{\defcounter {refsection}{0}\relax }\@writefile{toc}{\contentsline {subsection}{\numberline {4.5.1}CPU-Auslastung}{40}{subsection.4.5.1}}
\@writefile{lof}{\defcounter {refsection}{0}\relax }\@writefile{lof}{\contentsline {figure}{\numberline {\relax 4.8}{\ignorespaces Aufzeichnung der CPU-Beanspruchung der Applikation \IeC {\"u}ber die gesamte Laufzeit\relax }}{40}{figure.caption.41}}
\newlabel{cpuUsage}{{\relax 4.8}{40}{Aufzeichnung der CPU-Beanspruchung der Applikation über die gesamte Laufzeit\relax }{figure.caption.41}{}}
\@writefile{toc}{\defcounter {refsection}{0}\relax }\@writefile{toc}{\contentsline {subsection}{\numberline {4.5.2}Heap-Nutzung}{40}{subsection.4.5.2}}
\@writefile{lof}{\defcounter {refsection}{0}\relax }\@writefile{lof}{\contentsline {figure}{\numberline {\relax 4.9}{\ignorespaces Aufzeichnung des Speicherverbrauchs der Applikation \IeC {\"u}ber die gesamte Laufzeit. Blau markiert ist der derzeit verwendete Speicher, in orange der allokierte Speicher.\relax }}{41}{figure.caption.42}}
\newlabel{heapUsage}{{\relax 4.9}{41}{Aufzeichnung des Speicherverbrauchs der Applikation über die gesamte Laufzeit. Blau markiert ist der derzeit verwendete Speicher, in orange der allokierte Speicher.\relax }{figure.caption.42}{}}
\@writefile{toc}{\defcounter {refsection}{0}\relax }\@writefile{toc}{\contentsline {subsection}{\numberline {4.5.3}Anzahl Threads pro Minute}{41}{subsection.4.5.3}}
\@writefile{lof}{\defcounter {refsection}{0}\relax }\@writefile{lof}{\contentsline {figure}{\numberline {\relax 4.10}{\ignorespaces Aufzeichnung der Menge an gleichzeitig aktiven Threads des Programms. In blau gezeichnet ist die Menge an Daemon-Threads, in orange die Anzahl an aktiven Live-Threads.\relax }}{42}{figure.caption.43}}
\newlabel{threadUsage}{{\relax 4.10}{42}{Aufzeichnung der Menge an gleichzeitig aktiven Threads des Programms. In blau gezeichnet ist die Menge an Daemon-Threads, in orange die Anzahl an aktiven Live-Threads.\relax }{figure.caption.43}{}}
\@writefile{toc}{\defcounter {refsection}{0}\relax }\@writefile{toc}{\contentsline {subsection}{\numberline {4.5.4}Fazit zur Performance}{43}{subsection.4.5.4}}
\citation{Milicic2004}
\abx@aux@cite{Milicic2004}
\abx@aux@segm{0}{0}{Milicic2004}
\@writefile{toc}{\defcounter {refsection}{0}\relax }\@writefile{toc}{\contentsline {chapter}{\numberline {5}\IeC {\"O}konomische Analyse}{44}{chapter.5}}
\@writefile{lof}{\defcounter {refsection}{0}\relax }\@writefile{lof}{\addvspace {10\p@ }}
\@writefile{lot}{\defcounter {refsection}{0}\relax }\@writefile{lot}{\addvspace {10\p@ }}
\@writefile{lol}{\defcounter {refsection}{0}\relax }\@writefile{lol}{\addvspace {10\p@ }}
\newlabel{oekonomischeAnalyse}{{5}{44}{Ökonomische Analyse}{chapter.5}{}}
\acronymused{COCOMO}
\acronymused{COCOMO}
\acronymused{COCOMO}
\acronymused{COCOMO}
\@writefile{toc}{\defcounter {refsection}{0}\relax }\@writefile{toc}{\contentsline {section}{\numberline {5.1}Grundlagen von COCOMO}{44}{section.5.1}}
\acronymused{COCOMO}
\newlabel{cocomo}{{\relax 5.1}{44}{Grundlagen von COCOMO}{equation.5.1.1}{}}
\@writefile{equ}{\defcounter {refsection}{0}\relax }\@writefile{equ}{\contentsline {myequations}{\numberline {\relax 5.1}\ac {COCOMO} II-Formel zur Berechnung der Arbeitsaufw\IeC {\"a}nde bei der Entwicklung \& Implementierung eines Software-Projekts}{44}{equation.5.1.1}}
\citation{Esberger}
\abx@aux@cite{Esberger}
\abx@aux@segm{0}{0}{Esberger}
\@writefile{toc}{\defcounter {refsection}{0}\relax }\@writefile{toc}{\contentsline {section}{\numberline {5.2}Adaption auf die vorliegende Arbeit}{45}{section.5.2}}
\acronymused{COCOMO}
\newlabel{cocomo_functionPoints}{{\caption@xref {cocomo_functionPoints}{ on input line 31}}{45}{Adaption auf die vorliegende Arbeit}{table.caption.44}{}}
\@writefile{lot}{\defcounter {refsection}{0}\relax }\@writefile{lot}{\contentsline {table}{\numberline {\relax 5.1}{\ignorespaces Komplexit\IeC {\"a}tseinsch\IeC {\"a}tzung des Projekts im Rahmen einer Absch\IeC {\"a}tzung der Funktionspunkte\relax }}{45}{table.caption.44}}
\acronymused{COCOMO}
\citation{stuetzle_parameter}
\abx@aux@cite{stuetzle_parameter}
\abx@aux@segm{0}{0}{stuetzle_parameter}
\citation{stuetzle_parameter}
\abx@aux@segm{0}{0}{stuetzle_parameter}
\citation{stuetzle_parameter}
\abx@aux@segm{0}{0}{stuetzle_parameter}
\@writefile{toc}{\defcounter {refsection}{0}\relax }\@writefile{toc}{\contentsline {chapter}{\numberline {6}Senstivit\IeC {\"a}tsanalyse}{47}{chapter.6}}
\@writefile{lof}{\defcounter {refsection}{0}\relax }\@writefile{lof}{\addvspace {10\p@ }}
\@writefile{lot}{\defcounter {refsection}{0}\relax }\@writefile{lot}{\addvspace {10\p@ }}
\@writefile{lol}{\defcounter {refsection}{0}\relax }\@writefile{lol}{\addvspace {10\p@ }}
\newlabel{senstivitaetsAnalyse}{{6}{47}{Senstivitätsanalyse}{chapter.6}{}}
\@writefile{lot}{\defcounter {refsection}{0}\relax }\@writefile{lot}{\contentsline {table}{\numberline {\relax 6.1}{\ignorespaces Optimale Parametereinstellungen nach Thomas St\IeC {\"u}tzle, s. \cite {stuetzle_parameter}, Table 2\relax }}{47}{table.caption.45}}
\newlabel{senstivitaetsAnalyse_parameter}{{\relax 6.1}{47}{Optimale Parametereinstellungen nach Thomas Stützle, s. \cite {stuetzle_parameter}, Table 2\relax }{table.caption.45}{}}
\@writefile{toc}{\defcounter {refsection}{0}\relax }\@writefile{toc}{\contentsline {section}{\numberline {6.1}Erste Phase - Alpha zwischen 1 und 10}{48}{section.6.1}}
\@writefile{lof}{\defcounter {refsection}{0}\relax }\@writefile{lof}{\contentsline {figure}{\numberline {\relax 6.1}{\ignorespaces Boxplots der Distanzwerte bei vier verschiedenen Kolonien bei Alpha-Werten von 1, 4, 7 und 10\relax }}{48}{figure.caption.46}}
\newlabel{sAnalyse_erstePhase_plot}{{\relax 6.1}{48}{Boxplots der Distanzwerte bei vier verschiedenen Kolonien bei Alpha-Werten von 1, 4, 7 und 10\relax }{figure.caption.46}{}}
\newlabel{sAnalyse_erstePhase_table}{{\caption@xref {sAnalyse_erstePhase_table}{ on input line 37}}{48}{Erste Phase - Alpha zwischen 1 und 10}{table.caption.47}{}}
\@writefile{lot}{\defcounter {refsection}{0}\relax }\@writefile{lot}{\contentsline {table}{\numberline {\relax 6.2}{\ignorespaces In Phase 1 der Sensitivt\IeC {\"a}tsanalyse erreichte Distanzwerte\relax }}{48}{table.caption.47}}
\@writefile{toc}{\defcounter {refsection}{0}\relax }\@writefile{toc}{\contentsline {section}{\numberline {6.2}Zweite Phase - Alpha zwischen 0 und 4}{49}{section.6.2}}
\@writefile{lof}{\defcounter {refsection}{0}\relax }\@writefile{lof}{\contentsline {figure}{\numberline {\relax 6.2}{\ignorespaces Boxplots der Distanzwerte bei f\IeC {\"u}nf verschiedenen Kolonien bei Alpha-Werten von 0, 1, 2, 3 und 4\relax }}{49}{figure.caption.48}}
\newlabel{sAnalyse_zweitePhase_plot}{{\relax 6.2}{49}{Boxplots der Distanzwerte bei fünf verschiedenen Kolonien bei Alpha-Werten von 0, 1, 2, 3 und 4\relax }{figure.caption.48}{}}
\newlabel{sAnalyse_zweitePhase_table}{{\caption@xref {sAnalyse_zweitePhase_table}{ on input line 64}}{49}{Zweite Phase - Alpha zwischen 0 und 4}{table.caption.49}{}}
\@writefile{lot}{\defcounter {refsection}{0}\relax }\@writefile{lot}{\contentsline {table}{\numberline {\relax 6.3}{\ignorespaces In Phase 2 der Sensitivt\IeC {\"a}tsanalyse erreichte Distanzwerte\relax }}{49}{table.caption.49}}
\@writefile{toc}{\defcounter {refsection}{0}\relax }\@writefile{toc}{\contentsline {section}{\numberline {6.3}Dritte Phase - Alpha zwischen 1 und 3}{50}{section.6.3}}
\@writefile{lof}{\defcounter {refsection}{0}\relax }\@writefile{lof}{\contentsline {figure}{\numberline {\relax 6.3}{\ignorespaces Boxplots der Distanzwerte bei f\IeC {\"u}nf verschiedenen Kolonien bei Alpha-Werten von 1.0, 1.5, 2.0, 2.5 und 3.0\relax }}{50}{figure.caption.50}}
\newlabel{sAnalyse_drittePhase_plot}{{\relax 6.3}{50}{Boxplots der Distanzwerte bei fünf verschiedenen Kolonien bei Alpha-Werten von 1.0, 1.5, 2.0, 2.5 und 3.0\relax }{figure.caption.50}{}}
\newlabel{sAnalyse_drittePhase_table}{{\caption@xref {sAnalyse_drittePhase_table}{ on input line 91}}{51}{Dritte Phase - Alpha zwischen 1 und 3}{table.caption.51}{}}
\@writefile{lot}{\defcounter {refsection}{0}\relax }\@writefile{lot}{\contentsline {table}{\numberline {\relax 6.4}{\ignorespaces In Phase 3 der Sensitivt\IeC {\"a}tsanalyse erreichte Distanzwerte\relax }}{51}{table.caption.51}}
\@writefile{toc}{\defcounter {refsection}{0}\relax }\@writefile{toc}{\contentsline {section}{\numberline {6.4}Vierte Phase - Alpha zwischen 2 und 2.5}{51}{section.6.4}}
\@writefile{lof}{\defcounter {refsection}{0}\relax }\@writefile{lof}{\contentsline {figure}{\numberline {\relax 6.4}{\ignorespaces Boxplots der Distanzwerte bei sechs verschiedenen Kolonien bei Alpha-Werten von 2.0, 2.1, 2.2, 2.3, 2.4 und 2.5\relax }}{51}{figure.caption.52}}
\newlabel{sAnalyse_viertePhase_plot}{{\relax 6.4}{51}{Boxplots der Distanzwerte bei sechs verschiedenen Kolonien bei Alpha-Werten von 2.0, 2.1, 2.2, 2.3, 2.4 und 2.5\relax }{figure.caption.52}{}}
\citation{stuetzle_parameter}
\abx@aux@segm{0}{0}{stuetzle_parameter}
\citation{stuetzle_parameter}
\abx@aux@segm{0}{0}{stuetzle_parameter}
\newlabel{sAnalyse_viertePhase_table}{{\caption@xref {sAnalyse_viertePhase_table}{ on input line 119}}{52}{Vierte Phase - Alpha zwischen 2 und 2.5}{table.caption.53}{}}
\@writefile{lot}{\defcounter {refsection}{0}\relax }\@writefile{lot}{\contentsline {table}{\numberline {\relax 6.5}{\ignorespaces In Phase 4 der Sensitivt\IeC {\"a}tsanalyse erreichte Distanzwerte\relax }}{52}{table.caption.53}}
\@writefile{toc}{\defcounter {refsection}{0}\relax }\@writefile{toc}{\contentsline {section}{\numberline {6.5}Ergebnis der Sensitivit\IeC {\"a}tsanalyse}{52}{section.6.5}}
\@writefile{lot}{\defcounter {refsection}{0}\relax }\@writefile{lot}{\contentsline {table}{\numberline {\relax 6.6}{\ignorespaces Optimale Parametereinstellungen nach Thomas St\IeC {\"u}tzle, s. \cite {stuetzle_parameter}, Table 2\relax }}{52}{table.caption.54}}
\newlabel{senstivitaetsAnalyse_ergebnis}{{\relax 6.6}{52}{Optimale Parametereinstellungen nach Thomas Stützle, s. \cite {stuetzle_parameter}, Table 2\relax }{table.caption.54}{}}
\citation{TSPLib}
\abx@aux@cite{TSPLib}
\abx@aux@segm{0}{0}{TSPLib}
\@writefile{toc}{\defcounter {refsection}{0}\relax }\@writefile{toc}{\contentsline {chapter}{\numberline {7}Proof Of Concept}{54}{chapter.7}}
\@writefile{lof}{\defcounter {refsection}{0}\relax }\@writefile{lof}{\addvspace {10\p@ }}
\@writefile{lot}{\defcounter {refsection}{0}\relax }\@writefile{lot}{\addvspace {10\p@ }}
\@writefile{lol}{\defcounter {refsection}{0}\relax }\@writefile{lol}{\addvspace {10\p@ }}
\newlabel{proofOfConcept}{{7}{54}{Proof Of Concept}{chapter.7}{}}
\@writefile{toc}{\defcounter {refsection}{0}\relax }\@writefile{toc}{\contentsline {section}{\numberline {7.1}Zu berechnende Problemstellung}{54}{section.7.1}}
\@writefile{toc}{\defcounter {refsection}{0}\relax }\@writefile{toc}{\contentsline {section}{\numberline {7.2}Laufzeitverhalten der Implementierung}{54}{section.7.2}}
\newlabel{POC_parameters}{{\caption@xref {POC_parameters}{ on input line 13}}{55}{Laufzeitverhalten der Implementierung}{table.caption.55}{}}
\@writefile{lot}{\defcounter {refsection}{0}\relax }\@writefile{lot}{\contentsline {table}{\numberline {\relax 7.1}{\ignorespaces F\IeC {\"u}r den Proof of Concept gew\IeC {\"a}hlte Parameter\relax }}{55}{table.caption.55}}
\@writefile{toc}{\defcounter {refsection}{0}\relax }\@writefile{toc}{\contentsline {section}{\numberline {7.3}Berechnete L\IeC {\"o}sung}{55}{section.7.3}}
\@writefile{lof}{\defcounter {refsection}{0}\relax }\@writefile{lof}{\contentsline {figure}{\numberline {\relax 7.1}{\ignorespaces Verlauf der berechneten Distanzwerte bei einer Anzahl von 15000 aufeinanderfolgenden Generationen\relax }}{55}{figure.caption.56}}
\newlabel{POC_plot}{{\relax 7.1}{55}{Verlauf der berechneten Distanzwerte bei einer Anzahl von 15000 aufeinanderfolgenden Generationen\relax }{figure.caption.56}{}}
\@writefile{toc}{\defcounter {refsection}{0}\relax }\@writefile{toc}{\contentsline {chapter}{\numberline {8}Optimierung der Softwarel\IeC {\"o}sung}{56}{chapter.8}}
\@writefile{lof}{\defcounter {refsection}{0}\relax }\@writefile{lof}{\addvspace {10\p@ }}
\@writefile{lot}{\defcounter {refsection}{0}\relax }\@writefile{lot}{\addvspace {10\p@ }}
\@writefile{lol}{\defcounter {refsection}{0}\relax }\@writefile{lol}{\addvspace {10\p@ }}
\newlabel{optimierung}{{8}{56}{Optimierung der Softwarelösung}{chapter.8}{}}
\@writefile{toc}{\defcounter {refsection}{0}\relax }\@writefile{toc}{\contentsline {section}{\numberline {8.1}Versuch der Umstellung der Pheromonmatrix auf BigDecimal}{56}{section.8.1}}
\@writefile{toc}{\defcounter {refsection}{0}\relax }\@writefile{toc}{\contentsline {section}{\numberline {8.2}Optimierung der Datenbankzugriffe}{57}{section.8.2}}
\@writefile{toc}{\defcounter {refsection}{0}\relax }\@writefile{toc}{\contentsline {section}{\numberline {8.3}Verwendete algorithmische Optimierungen}{57}{section.8.3}}
\newlabel{analyseAlgorithmen}{{8.3}{57}{Verwendete algorithmische Optimierungen}{section.8.3}{}}
\@writefile{toc}{\defcounter {refsection}{0}\relax }\@writefile{toc}{\contentsline {subsection}{\numberline {8.3.1}Doppelte Beachtung der derzeit besten Route}{57}{subsection.8.3.1}}
\citation{Miss.NerkarSwapna2015}
\abx@aux@cite{Miss.NerkarSwapna2015}
\abx@aux@segm{0}{0}{Miss.NerkarSwapna2015}
\citation{B.Booba2014}
\abx@aux@cite{B.Booba2014}
\abx@aux@segm{0}{0}{B.Booba2014}
\citation{Cordon2002}
\abx@aux@cite{Cordon2002}
\abx@aux@segm{0}{0}{Cordon2002}
\citation{Sarac2014}
\abx@aux@cite{Sarac2014}
\abx@aux@segm{0}{0}{Sarac2014}
\citation{Karmakar2016}
\abx@aux@cite{Karmakar2016}
\abx@aux@segm{0}{0}{Karmakar2016}
\@writefile{toc}{\defcounter {refsection}{0}\relax }\@writefile{toc}{\contentsline {subsection}{\numberline {8.3.2}Regelm\IeC {\"a}\IeC {\ss }ige Verkleinerung aller Pheromonwerte}{58}{subsection.8.3.2}}
\@writefile{toc}{\defcounter {refsection}{0}\relax }\@writefile{toc}{\contentsline {subsection}{\numberline {8.3.3}Mutation der Pheromonmatrix}{58}{subsection.8.3.3}}
\@writefile{toc}{\defcounter {refsection}{0}\relax }\@writefile{toc}{\contentsline {subsection}{\numberline {8.3.4}Bezeichnung einzelner Ameisen als Elite}{58}{subsection.8.3.4}}
\@writefile{toc}{\defcounter {refsection}{0}\relax }\@writefile{toc}{\contentsline {chapter}{\numberline {9}Fazit}{60}{chapter.9}}
\@writefile{lof}{\defcounter {refsection}{0}\relax }\@writefile{lof}{\addvspace {10\p@ }}
\@writefile{lot}{\defcounter {refsection}{0}\relax }\@writefile{lot}{\addvspace {10\p@ }}
\@writefile{lol}{\defcounter {refsection}{0}\relax }\@writefile{lol}{\addvspace {10\p@ }}
\@writefile{toc}{\defcounter {refsection}{0}\relax }\@writefile{toc}{\contentsline {section}{\numberline {9.1}Erreichte Ergebnisse}{60}{section.9.1}}
\@writefile{toc}{\defcounter {refsection}{0}\relax }\@writefile{toc}{\contentsline {section}{\numberline {9.2}Zuk\IeC {\"u}nftige Arbeiten}{60}{section.9.2}}
\@writefile{toc}{\defcounter {refsection}{0}\relax }\@writefile{toc}{\contentsline {chapter}{Literaturverzeichnis}{61}{section*.57}}
\@writefile{toc}{\defcounter {refsection}{0}\relax }\@writefile{toc}{\contentsline {chapter}{Anhang}{63}{section*.59}}
\acronymused{ER}
\@writefile{apc}{\defcounter {refsection}{0}\relax }\@writefile{apc}{\contentsline {appendices}{CD mit komplettem Source-Code der Applikation, sowie einer digitalen Version dieser Arbeit}{64}{section*.60}}
\@writefile{apc}{\defcounter {refsection}{0}\relax }\@writefile{apc}{\contentsline {appendices}{Klassendiagramm der vorliegenden Softwarel\IeC {\"o}sung}{65}{section*.61}}
\newlabel{classDiagram_FullSize}{{9.2}{65}{Klassendiagramm der vorliegenden Softwarelösung}{section*.61}{}}
\@writefile{apc}{\defcounter {refsection}{0}\relax }\@writefile{apc}{\contentsline {appendices}{Paketdiagramm der vorliegenden Softwarel\IeC {\"o}sung}{65}{section*.62}}
\newlabel{packageDiagram}{{9.2}{65}{Paketdiagramm der vorliegenden Softwarelösung}{section*.62}{}}
\acronymused{ER}
\@writefile{apc}{\defcounter {refsection}{0}\relax }\@writefile{apc}{\contentsline {appendices}{\acs {ER}-Diagramm der vorliegenden Softwarel\IeC {\"o}sung}{66}{section*.63}}
\newlabel{erDiagram}{{9.2}{66}{\acs {ER}-Diagramm der vorliegenden Softwarelösung}{section*.63}{}}
\@writefile{apc}{\defcounter {refsection}{0}\relax }\@writefile{apc}{\contentsline {appendices}{Testf\IeC {\"a}lle der Klasse $Ant$, Seite 1}{67}{section*.64}}
\newlabel{testAnt1}{{9.2}{67}{Testfälle der Klasse $Ant$, Seite 1}{section*.64}{}}
\@writefile{apc}{\defcounter {refsection}{0}\relax }\@writefile{apc}{\contentsline {appendices}{Testf\IeC {\"a}lle der Klasse $Ant$, Seite 2}{68}{section*.65}}
\newlabel{testAnt2}{{9.2}{68}{Testfälle der Klasse $Ant$, Seite 2}{section*.65}{}}
\@writefile{apc}{\defcounter {refsection}{0}\relax }\@writefile{apc}{\contentsline {appendices}{Testf\IeC {\"a}lle der Klasse $Ant$, Seite 3}{69}{section*.66}}
\newlabel{testAnt3}{{9.2}{69}{Testfälle der Klasse $Ant$, Seite 3}{section*.66}{}}
\@writefile{apc}{\defcounter {refsection}{0}\relax }\@writefile{apc}{\contentsline {appendices}{Testf\IeC {\"a}lle der Klasse $Colony$, Seite 1}{70}{section*.67}}
\newlabel{testColony1}{{9.2}{70}{Testfälle der Klasse $Colony$, Seite 1}{section*.67}{}}
\@writefile{apc}{\defcounter {refsection}{0}\relax }\@writefile{apc}{\contentsline {appendices}{Testf\IeC {\"a}lle der Klasse $Colony$, Seite 2}{71}{section*.68}}
\newlabel{testColony2}{{9.2}{71}{Testfälle der Klasse $Colony$, Seite 2}{section*.68}{}}
\@writefile{apc}{\defcounter {refsection}{0}\relax }\@writefile{apc}{\contentsline {appendices}{Testf\IeC {\"a}lle der Klasse $Landscape$, Seite 1}{72}{section*.69}}
\newlabel{testLandscape1}{{9.2}{72}{Testfälle der Klasse $Landscape$, Seite 1}{section*.69}{}}
\@writefile{apc}{\defcounter {refsection}{0}\relax }\@writefile{apc}{\contentsline {appendices}{Testf\IeC {\"a}lle der Klasse $Landscape$, Seite 2}{73}{section*.70}}
\newlabel{testLandscape2}{{9.2}{73}{Testfälle der Klasse $Landscape$, Seite 2}{section*.70}{}}
\@writefile{apc}{\defcounter {refsection}{0}\relax }\@writefile{apc}{\contentsline {appendices}{Testf\IeC {\"a}lle der Klassen von $Parser$}{74}{section*.71}}
\newlabel{testParser1}{{9.2}{74}{Testfälle der Klassen von $Parser$}{section*.71}{}}
\@writefile{apc}{\defcounter {refsection}{0}\relax }\@writefile{apc}{\contentsline {appendices}{Testf\IeC {\"a}lle der Klasse $HSQLDBManager$, Seite 1}{75}{section*.72}}
\newlabel{testHSQLDB1}{{9.2}{75}{Testfälle der Klasse $HSQLDBManager$, Seite 1}{section*.72}{}}
\@writefile{apc}{\defcounter {refsection}{0}\relax }\@writefile{apc}{\contentsline {appendices}{R-Code zur Auswertung der ersten Phase der Sensitivit\IeC {\"a}tsanalyse}{76}{section*.73}}
\newlabel{rCode_erstePhase}{{9.2}{76}{R-Code zur Auswertung der ersten Phase der Sensitivitätsanalyse}{section*.73}{}}
\@writefile{lol}{\defcounter {refsection}{0}\relax }\@writefile{lol}{\contentsline {lstlisting}{code/parameterData\textunderscore phase1.txt}{76}{lstlisting.Alph0.-1}}
\@writefile{apc}{\defcounter {refsection}{0}\relax }\@writefile{apc}{\contentsline {appendices}{R-Code zur Auswertung der zweiten Phase der Sensitivit\IeC {\"a}tsanalyse}{77}{section*.74}}
\newlabel{rCode_zweitePhase}{{9.2}{77}{R-Code zur Auswertung der zweiten Phase der Sensitivitätsanalyse}{section*.74}{}}
\@writefile{lol}{\defcounter {refsection}{0}\relax }\@writefile{lol}{\contentsline {lstlisting}{code/parameterData\textunderscore phase2.txt}{77}{lstlisting.Alph0.-2}}
\@writefile{apc}{\defcounter {refsection}{0}\relax }\@writefile{apc}{\contentsline {appendices}{R-Code zur Auswertung der dritten Phase der Sensitivit\IeC {\"a}tsanalyse}{79}{section*.75}}
\newlabel{rCode_drittePhase}{{9.2}{79}{R-Code zur Auswertung der dritten Phase der Sensitivitätsanalyse}{section*.75}{}}
\@writefile{lol}{\defcounter {refsection}{0}\relax }\@writefile{lol}{\contentsline {lstlisting}{code/parameterData\textunderscore phase3.txt}{79}{lstlisting.Alph0.-3}}
\@writefile{apc}{\defcounter {refsection}{0}\relax }\@writefile{apc}{\contentsline {appendices}{R-Code zur Auswertung der vierten Phase der Sensitivit\IeC {\"a}tsanalyse}{81}{section*.76}}
\newlabel{rCode_viertePhase}{{9.2}{81}{R-Code zur Auswertung der vierten Phase der Sensitivitätsanalyse}{section*.76}{}}
\@writefile{lol}{\defcounter {refsection}{0}\relax }\@writefile{lol}{\contentsline {lstlisting}{code/parameterData\textunderscore phase4.txt}{81}{lstlisting.Alph0.-4}}
\abx@aux@refcontextdefaultsdone
\abx@aux@defaultrefcontext{0}{B.Booba2014}{nty/global/}
\abx@aux@defaultrefcontext{0}{Cordon2002}{nty/global/}
\abx@aux@defaultrefcontext{0}{Esberger}{nty/global/}
\abx@aux@defaultrefcontext{0}{Karmakar2016}{nty/global/}
\abx@aux@defaultrefcontext{0}{Milicic2004}{nty/global/}
\abx@aux@defaultrefcontext{0}{Miss.NerkarSwapna2015}{nty/global/}
\abx@aux@defaultrefcontext{0}{stuetzle_parameter}{nty/global/}
\abx@aux@defaultrefcontext{0}{TSPLib}{nty/global/}
\abx@aux@defaultrefcontext{0}{Sarac2014}{nty/global/}
\abx@aux@defaultrefcontext{0}{Shewchuk1997}{nty/global/}
\abx@aux@defaultrefcontext{0}{Smyth2007}{nty/global/}
\abx@aux@defaultrefcontext{0}{Ullenboom2011}{nty/global/}
\abx@aux@defaultrefcontext{0}{Valencak2015}{nty/global/}
\abx@aux@defaultrefcontext{0}{Whitehead2011}{nty/global/}
